…
``` r
long_df
```

    ## # A tibble: 160 x 4
    ##    Arm     ID    Week  Observation
    ##    <chr>   <chr> <chr>       <dbl>
    ##  1 Control 01    1            0.2 
    ##  2 Control 01    2           -1.31
    ##  3 Control 01    3            0.66
    ##  4 Control 01    4            1.96
    ##  5 Control 01    5            0.23
    ##  6 Control 01    6            1.09
    ##  7 Control 01    7            0.05
    ##  8 Control 01    8            1.94
    ##  9 Control 02    1            1.13
    ## 10 Control 02    2           -0.88
    ## # … with 150 more rows
…
